…
``` r
tdf = tibble(x = 1:1e4, y = rnorm(1e4))  # == data_frame(x = 1:1e4, y = rnorm(1e4))
class(tdf)
```

    ## [1] "tbl_df"     "tbl"        "data.frame"

Tibbles print politely.

``` r
tdf
```

    ## # A tibble: 10,000 × 2
    ##        x           y
    ##    <int>       <dbl>
    ## 1      1 -0.05985947
    ## 2      2  0.36991681
    ## 3      3  0.55610851
    ## 4      4 -0.18125650
    ## 5      5 -0.93476016
    ## 6      6 -0.66538208
    ## 7      7  0.60730674
    ## 8      8  0.84813702
    ## 9      9  0.16010145
    ## 10    10 -0.69335896
    ## # ... with 9,990 more rows
…
``` r
filter(movies, length > 360)
```

    ## # A tibble: 21 × 24
    ##                                               title  year length  budget
    ##                                               <chr> <int>  <int>   <int>
    ## 1                         Commune (Paris, 1871), La  2000    555      NA
    ## 2                            Cure for Insomnia, The  1987   5220      NA
    ## 3             Ebolusyon ng isang pamilyang pilipino  2004    647      NA
    ## 4                                            Empire  1964    485      NA
    ## 5                                Farmer's Wife, The  1998    390      NA
    ## 6                                     Foolish Wives  1922    384 1100000
    ## 7                                        Four Stars  1967   1100      NA
    ## 8                 Hitler - ein Film aus Deutschland  1978    407      NA
    ## 9                               Imitation of Christ  1967    480      NA
    ## 10 Longest Most Meaningless Movie in the World, The  1970   2880      NA
    ## # ... with 11 more rows, and 20 more variables: rating <dbl>, votes <int>,
    ## #   r1 <dbl>, r2 <dbl>, r3 <dbl>, r4 <dbl>, r5 <dbl>, r6 <dbl>, r7 <dbl>,
    ## #   r8 <dbl>, r9 <dbl>, r10 <dbl>, mpaa <chr>, Action <int>,
    ## #   Animation <int>, Comedy <int>, Drama <int>, Documentary <int>,
    ## #   Romance <int>, Short <int>

``` r
filter(movies, length > 360) %>%
  select(title, rating, votes)
```

    ## # A tibble: 21 × 3
    ##                                               title rating votes
    ##                                               <chr>  <dbl> <int>
    ## 1                         Commune (Paris, 1871), La    7.8    33
    ## 2                            Cure for Insomnia, The    3.8    59
    ## 3             Ebolusyon ng isang pamilyang pilipino    8.4     5
    ## 4                                            Empire    5.5    46
    ## 5                                Farmer's Wife, The    8.5    52
    ## 6                                     Foolish Wives    7.6   191
    ## 7                                        Four Stars    3.0    12
    ## 8                 Hitler - ein Film aus Deutschland    9.0    70
    ## 9                               Imitation of Christ    4.4     5
    ## 10 Longest Most Meaningless Movie in the World, The    6.4    15
    ## # ... with 11 more rows

``` r
filter(movies, Animation == 1, votes > 1000) %>%
  select(title, rating) %>%
  arrange(desc(rating))
```

    ## # A tibble: 135 × 2
    ##                                   title rating
    ##                                   <chr>  <dbl>
    ## 1         Sen to Chihiro no kamikakushi    8.6
    ## 2                            Duck Amuck    8.4
    ## 3  Wallace & Gromit: The Wrong Trousers    8.4
    ## 4                          Finding Nemo    8.3
    ## 5                        Hotaru no haka    8.3
    ## 6                      Incredibles, The    8.3
    ## 7                         Mononoke-hime    8.3
    ## 8                    What's Opera, Doc?    8.3
    ## 9                               Vincent    8.2
    ## 10      Wallace & Gromit: A Close Shave    8.2
    ## # ... with 125 more rows

`summarize` makes `aggregate` and `tapply` functionality easier, and the output is always a data frame.

``` r
filter(movies, mpaa != "") %>%
  group_by(year, mpaa) %>%
  summarize(avg_budget = mean(budget, na.rm = TRUE),
            avg_rating = mean(rating, na.rm = TRUE)) %>%
  arrange(desc(year), mpaa)
```

    ## Source: local data frame [128 x 4]
    ## Groups: year [54]
    ## 
    ##     year  mpaa avg_budget avg_rating
    ##    <int> <chr>      <dbl>      <dbl>
    ## 1   2005 NC-17        NaN   6.700000
    ## 2   2005    PG   45857143   5.733333
    ## 3   2005 PG-13   42269333   5.326087
    ## 4   2005     R   24305882   4.595833
    ## 5   2004    PG   45126852   5.847619
    ## 6   2004 PG-13   46288254   6.080180
    ## 7   2004     R   19548519   5.848469
    ## 8   2003    PG   37057692   5.897674
    ## 9   2003 PG-13   46269491   5.949038
    ## 10  2003     R   21915505   5.702273
    ## # ... with 118 more rows

`count` for frequency tables. Note the consistent API and easy readability vs. `table`.

``` r
filter(movies, mpaa != "") %>%
  count(year, mpaa, Animation, sort = TRUE)
```

    ## Source: local data frame [156 x 4]
    ## Groups: year, mpaa [128]
    ## 
    ##     year  mpaa Animation     n
    ##    <int> <chr>     <int> <int>
    ## 1   1999     R         0   366
    ## 2   2001     R         0   355
    ## 3   2002     R         0   343
    ## 4   2000     R         0   341
    ## 5   1998     R         0   335
    ## 6   1997     R         0   325
    ## 7   1996     R         0   310
    ## 8   1995     R         0   293
    ## 9   2003     R         0   264
    ## 10  2004     R         0   196
    ## # ... with 146 more rows
…
`tidyr`
-------

Latest generation of `reshape`. `gather` to make wide table long, `spread` to make long tables wide.

``` r
who
```

    ## # A tibble: 7,240 × 60
    ##        country  iso2  iso3  year new_sp_m014 new_sp_m1524 new_sp_m2534
    ##          <chr> <chr> <chr> <int>       <int>        <int>        <int>
    ## 1  Afghanistan    AF   AFG  1980          NA           NA           NA
    ## 2  Afghanistan    AF   AFG  1981          NA           NA           NA
    ## 3  Afghanistan    AF   AFG  1982          NA           NA           NA
    ## 4  Afghanistan    AF   AFG  1983          NA           NA           NA
    ## 5  Afghanistan    AF   AFG  1984          NA           NA           NA
    ## 6  Afghanistan    AF   AFG  1985          NA           NA           NA
    ## 7  Afghanistan    AF   AFG  1986          NA           NA           NA
    ## 8  Afghanistan    AF   AFG  1987          NA           NA           NA
    ## 9  Afghanistan    AF   AFG  1988          NA           NA           NA
    ## 10 Afghanistan    AF   AFG  1989          NA           NA           NA
    ## # ... with 7,230 more rows, and 53 more variables: new_sp_m3544 <int>,
    ## #   new_sp_m4554 <int>, new_sp_m5564 <int>, new_sp_m65 <int>,
    ## #   new_sp_f014 <int>, new_sp_f1524 <int>, new_sp_f2534 <int>,
    ## #   new_sp_f3544 <int>, new_sp_f4554 <int>, new_sp_f5564 <int>,
    ## #   new_sp_f65 <int>, new_sn_m014 <int>, new_sn_m1524 <int>,
    ## #   new_sn_m2534 <int>, new_sn_m3544 <int>, new_sn_m4554 <int>,
    ## #   new_sn_m5564 <int>, new_sn_m65 <int>, new_sn_f014 <int>,
    ## #   new_sn_f1524 <int>, new_sn_f2534 <int>, new_sn_f3544 <int>,
    ## #   new_sn_f4554 <int>, new_sn_f5564 <int>, new_sn_f65 <int>,
…
``` r
who %>%
  gather(group, cases, -country, -iso2, -iso3, -year)
```

    ## # A tibble: 405,440 × 6
    ##        country  iso2  iso3  year       group cases
    ##          <chr> <chr> <chr> <int>       <chr> <int>
    ## 1  Afghanistan    AF   AFG  1980 new_sp_m014    NA
    ## 2  Afghanistan    AF   AFG  1981 new_sp_m014    NA
    ## 3  Afghanistan    AF   AFG  1982 new_sp_m014    NA
    ## 4  Afghanistan    AF   AFG  1983 new_sp_m014    NA
    ## 5  Afghanistan    AF   AFG  1984 new_sp_m014    NA
    ## 6  Afghanistan    AF   AFG  1985 new_sp_m014    NA
    ## 7  Afghanistan    AF   AFG  1986 new_sp_m014    NA
    ## 8  Afghanistan    AF   AFG  1987 new_sp_m014    NA
    ## 9  Afghanistan    AF   AFG  1988 new_sp_m014    NA
    ## 10 Afghanistan    AF   AFG  1989 new_sp_m014    NA
    ## # ... with 405,430 more rows
…
